animation{
  name = "walking",
  src_image = "shadows/shadow.png",
  directions = {
    { x = 24, y = 8, frame_width = 8, frame_height = 8, origin_x = 4, origin_y = 5 },
    { x = 24, y = 8, frame_width = 8, frame_height = 8, origin_x = 4, origin_y = 5 },
    { x = 24, y = 8, frame_width = 8, frame_height = 8, origin_x = 4, origin_y = 5 },
    { x = 24, y = 8, frame_width = 8, frame_height = 8, origin_x = 4, origin_y = 5 },
  },
}
