animation{
  name = "stopped",
  src_image = "foliage/bushes.png",
  frame_delay = 270,
  frame_to_loop_on = 0,
  directions = {
    { x = 0, y = 24, frame_width = 24, frame_height = 24, origin_x = 12, origin_y = 21, num_frames = 4 },
  },
}
animation{
  name = "shaking",
  src_image = "foliage/bushes.png",
  frame_delay = 80,
  directions = {
    { x = 0, y = 0, frame_width = 24, frame_height = 24, origin_x = 12, origin_y = 21, num_frames = 4 },
  },
}
