animation{
  name = "stopped",
  src_image = "world_objects/barrel.png",
  directions = {
    { x = 96, y = 8, frame_width = 16, frame_height = 24, origin_x = 8, origin_y = 21 },
  },
}
animation{
  name = "breaking",
  src_image = "world_objects/barrel.png",
  frame_delay = 50,
  directions = {
    { x = 0, y = 48, frame_width = 48, frame_height = 48, origin_x = 24, origin_y = 45, num_frames = 6, num_columns = 3 },
  },
}
